
    SUBROUTINE VNC.LD.AMND.A.SCH

    $INSERT I_COMMON
    $INSERT I_EQUATE
    $INSERT I_F.LD.LOANS.AND.DEPOSITS
    $INSERT I_F.LD.SCHEDULE.DEFINE
    $INSERT I_F.COMPANY
    $INSERT I_F.CURRENCY
	$INSERT I_F.LMM.ACCOUNT.BALANCES
	 $INSERT  I_F.HDB.PD.ADJUST
	
 
   
    FN.LDD = "FBNK.LD.LOANS.AND.DEPOSITS" ; F.LDD = '' ; R.LDD = ''
    CALL OPF(FN.LDD,F.LDD)
   
   FN.LDD.HIS = "FBNK.LD.LOANS.AND.DEPOSITS$HIS" ; F.LDD.HIS = '' ; R.LDD.HIS = ''
    CALL OPF(FN.LDD.HIS,F.LDD.HIS)
	
	  FN.HDB.PD.ADJUST = 'F.HDB.PD.ADJUST'                ;  F.HDB.PD.ADJUST   = ''                 ; R.HDB.PD.ADJUST    = ''
    CALL OPF(FN.HDB.PD.ADJUST,F.HDB.PD.ADJUST)
	
   
    FN.LDD.NAU = "FBNK.LD.LOANS.AND.DEPOSITS$NAU" ; F.LDD.NAU = '' ; R.LDD.NAU = ''
    CALL OPF(FN.LDD.NAU,F.LDD.NAU)
   
   	FN.LMM = 'F.LMM.ACCOUNT.BALANCES'
    F.LMM  = ''
    CALL OPF(FN.LMM,F.LMM)
	
	*DEBUG
   
     LD.REF =   ID.NEW
	 
	 CHK.FLAG = '' 
	
	 *DEBUG
	 
	 
	  ST.DATE =  ''
	  NEW.INT.DATE= ''
	  
	  
	            	  CALL F.READ(FN.LDD, LD.REF , R.LDD, F.LDD, ERROR.LDD)
					  
	   
                     LMM.ID =  LD.REF:"00"
				   
                    CALL F.READ(FN.LMM, LMM.ID  , R.LMM , F.LMM , ERROR.LMM )
					  
					  INT.STA           =  R.LMM<LD27.INT.ACCR.START>
						 
	                   *   LD.ID.HIS = LD.REF:';1'
	                   	 
	                   	*  CALL F.READ(FN.LDD.HIS,LD.ID.HIS, R.LDD.HIS, F.LDD.HIS, ERROR.LDD.HIS) 
		  
		            
		            * OLD.FIN.DATE  = R.LDD.HIS<LD.FIN.MAT.DATE>[7,2]	
					
					     IDD = LD.REF        
            CALL F.READ( FN.HDB.PD.ADJUST,IDD, R.HDB.PD.ADJUST, F.HDB.PD.ADJUST, ETEXT.HDB.PD.ADJUST)
   
         * OLD.FIN.DATE  =  R.HDB.PD.ADJUST<ADJS.NEW.CAT>[7,2]
					

						            	  CALL F.READ(FN.LDD.NAU, LD.REF , R.LDD.NAU, F.LDD.NAU, ERROR.LDD.NAU)
					  
					  OLD.FIN.DATE = R.LDD.NAU<LD.FIN.MAT.DATE>[7,2]
					  
                     NEW.INT.DATE  = TODAY[1,6]	: OLD.FIN.DATE				 
		             NEW.SCH.R =  R.LDD<LD.INTEREST.RATE> +  R.LDD<LD.INTEREST.SPREAD>
	*** DEBUG				 
		
		
		
	ST.DATE =  NEW.INT.DATE 	
		   
 * IF INT.STA GE '20200301' THEN 
 IF  OLD.FIN.DATE LE 15 THEN 
 
 
        ST.DATE =  NEW.INT.DATE 		 
	    CALL ADD.MONTHS(ST.DATE ,'3') 
	END 

	** IF INT.STA LT '20200301' THEN 
	 IF  OLD.FIN.DATE GT 15 THEN 
 
        ST.DATE =  NEW.INT.DATE 		 
	    CALL ADD.MONTHS(ST.DATE ,'2') 
	END 
	** IF   ST.DATE[7,2] EQ 29 THEN   
	** ST.DATE.NOM = 28
	** END ELSE
	** 
	** ST.DATE.NOM = ST.DATE[7,2] 
	** END 
	** 
    ** ST.DATE  =   ST.DATE[1,6]: OLD.FIN.DATE 
	** 
	
        DCONT.SCH =  DCOUNT(R.NEW(LD.SD.DATE),VM)  
		
		  FOR III  = 1 TO DCONT.SCH
		 
		   R.NEW(LD.SD.DATE)<1,III>  = ST.DATE
			 
			  TYP.A =  R.NEW(LD.SD.SCH.TYPE)<1,III> 
	     IF TYP.A EQ 'A' THEN 
		     R.NEW(LD.SD.AMOUNT)<1,III>  = ''
			    R.NEW(LD.SD.DATE)<1,III>  = ST.DATE
	
		END   
	
		  
		  NEXT III 
		  
		***DEBUG  
		*  II = DCONT.SCH + 1 
      *   
      *   
		*  R.ST.DATE =  NEW.INT.DATE 
		*  CALL ADD.MONTHS( R.ST.DATE  ,'4')
		*   CALL CDT("",R.ST.DATE,'4C')
		*   
		*   R.NEW(LD.SD.SCH.TYPE)<1,II>         = 'R'
      *   R.NEW(LD.SD.DATE)<1,II>             =  R.ST.DATE
      *   R.NEW(LD.SD.RATE)<1,II>             =  NEW.SCH.R


    RETURN		  

END
	