

*-----------------------------------------------------------------------------
* <Rating>1481</Rating>
*-----------------------------------------------------------------------------
    SUBROUTINE VVR.PD.FIX.DATA

    $INSERT I_COMMON
    $INSERT I_EQUATE
    $INSERT I_F.LD.LOANS.AND.DEPOSITS
    $INSERT I_F.LD.SCHEDULE.DEFINE
    $INSERT I_F.PD.PAYMENT.DUE
    $INSERT I_F.COMPANY
    $INSERT I_F.CURRENCY
	$INSERT I_F.HDB.PD.DAT
	



	
	OPENSEQ "/t24/t24perf/TAFJ_SP31.1/samples/FIX.PD" , "PD-FIX-":TODAY TO T.DATA THEN
        CLOSESEQ T.DATA
        HUSH ON
        EXECUTE 'DELETE ':"/t24/t24perf/TAFJ_SP31.1/samples/FIX.PD":' ':"PD.FIX-":TODAY
        HUSH OFF
    END
    OPENSEQ "/t24/t24perf/TAFJ_SP31.1/samples/FIX.PD" , "PD-FIX-":TODAY TO T.DATA ELSE
        CREATE T.DATA THEN
            PRINT 'LD.TRNS CREATED IN /t24/t24perf/TAFJ/samples/basic/PD.LD.FIX'
        END
        ELSE
           STOP 'Cannot create LD.TRNS File IN /t24/t24perf/TAFJ/samples/basic/PD.LD.FIX'
        END
    END
        
        
		
    FN.LDD = "FBNK.LD.LOANS.AND.DEPOSITS" ; F.LDD = '' ; R.LDD = ''
   CALL OPF(FN.LDD,F.LDD)
	
	
	
	
	
	
	
	FN.PD.PAY.D       = 'F.PD.PAYMENT.DUE'               ; F.PD.PAY.D       = ''            ; R.PD.PAY.D       = ''      ; ER.PD.PAY.D       = ''    ; CALL OPF(FN.PD.PAY.D,F.PD.PAY.D)
	
	
	FN.PD.PAY.D.NAU       = 'F.PD.PAYMENT.DUE$NAU'               ; F.PD.PAY.D.NAU       = ''            ; R.PD.PAY.D.NAU       = ''      ; ER.PD.PAY.D.NAU       = ''    ; CALL OPF(FN.PD.PAY.D.NAU,F.PD.PAY.D.NAU)
	
	FN.PD.C     = 'F.PD.CAPTURE'               ; F.PD.C        = ''            ; R.PD.C        = ''      ; ER.PD.C       = ''    ; CALL OPF(FN.PD.C,F.PD.C)
	
    FN.ACC ='FBNK.ACCOUNT'              ; F.ACC   = ''
    CALL OPF(FN.ACC,F.ACC)
	
		FN.PD.DAT ='F.HDB.PD.DAT'              ; F.PD.DAT   = ''
    CALL OPF(FN.PD.DAT,F.PD.DAT)
	
	
	
	
	*DEBUG 
	 T.SEL  = "SELECT F.HDB.PD.DAT WITH PD.DAT GE 20200315 "

	
 
     CALL EB.READLIST(T.SEL,KEY.LIST,"",SELECTED,ER.MSG)

    IF KEY.LIST THEN
        FOR II = 1 TO SELECTED
		 
		       PD.REF = KEY.LIST<II>
				

			 
			 
			 
					GOSUB GET.STRT		

																										
	NEXT II 													
END 
					
					
					
 RETURN
			  
GET.STRT:

		    *DEBUG
			
			   OUR.REF = PD.REF[3,12]
												  
			  CALL F.READ(FN.LDD, OUR.REF , R.LDD, F.LDD, ERROR.LDD)
			
		**	V.LD..DAT = R.LDD<LD.VALUE.DATE>

		 LD.AMT = R.LDD<LD.AMOUNT>
		 LD.COD.CODE = R.LDD<LD.CO.CODE>
		 LD.FIN.DAT = R.LDD<LD.FIN.MAT.DATE>[7,2]
	***DEBUG
		
		*IF  LD.AMT EQ '' OR  LD.AMT EQ 0 THEN 

		          CALL F.READ( FN.PD.DAT,PD.REF, R.PD.DAT ,F.PD.DAT, ER.PD.DAT)
                      PD.DAT = R.PD.DAT<3>[7,2]
					  
					  IF LD.FIN.DAT NE PD.DAT THEN 
					  
                      
											  
											  	       TRNS.DATA  = PD.REF :",":R.PD.DAT<3>  :",": R.PD.DAT<2> :",": LD.COD.CODE
											  	   WRITESEQ TRNS.DATA TO  T.DATA ELSE
                                                      PRINT " ERROR WRITE FILE "
                                              
		                                              END   
					
         END 					
					*****--------------------------------------------------


			


     RETURN   
**-------------------------------------------------------------------   
   RETURN

END
