*-----------------------------------------------------------------------------
* <Rating>1481</Rating>
*-----------------------------------------------------------------------------
    SUBROUTINE VVR.SUBS.LOAN.LD.LIQ.I

    $INSERT I_COMMON
    $INSERT I_EQUATE
    $INSERT I_F.LD.LOANS.AND.DEPOSITS
    $INSERT I_F.LD.SCHEDULE.DEFINE
    $INSERT I_F.COMPANY
    $INSERT I_F.CURRENCY
    $INSERT I_F.HDB.SUBSIDY.LOAN.SCH

DEBUG
	
              DEFFUN SHIFT.DATE( )
            
			  Path = "/t24/t24perf/TAFJ_SP31.1/samples/LAST/SUBS.LOANS.csv"
			  
			   OPENSEQ Path TO MyPath ELSE
                 TEXT = "ERROR OPEN FILE" ; CALL REM
                 RETURN
              END

		
              I   = 1
              EOF = ''
			  
              LOOP WHILE NOT(EOF)
                READSEQ Line FROM MyPath THEN
*****DEBUG


*********---------------------
                                         WS.SUS.PAY 	=  ''
										  ANNUT.AMT     =  ''
										  CUS.PAY       =  ''
										  LAST.PERS     =  ''
    		                              ST.DATE       =  ''
						                  WS.PRINS.AMT   =  ''
 										  ANNUT.AMT.ORG  =  ''
										  LOAN.INT       =  ''
                                          WS.TOT.PAY    =  ''
										  WS.SUS.PAY    =  ''
										  OUTSTAND.AMT  =  ''
										  OUTSTAND.AMT  =  ''
										  CUS.PAY.X     =  ''
									      OUTSTAND.AMT  =  ''
										  WS.PRINS.AMT  =  ''
										  PRINS.AMT.TOT =  ''
										  ORG.PRINS.AMT =	''                                                    
						                  LOAN.INT        =  ''
										  OUTSTAND.AMT    =	''									                
			                              TODAT.PRINS.AMT =  ''
										  SUBSIDY.AMT     = ''
										  CUS.PAY.ORG     = ''
										  SAL.CHK         = ''
										   AMT.TO.PAY = '' 
										   SAL.MAX.PR  = '' 
										   
  NOOM.OF.LOOP              = ''									   
  HH                        = ''								   
  II                        = ''
  NOMM                      = ''									   
  CUS.PAY.X                 = ''								   
  AMT.1                     = ''								   
  AMT.2                     = ''								   
										   
										   
										   
										   
										                 
				  BRN.NO        = '' 
				  COMP.ID       = '' 
				  CUS.NOM       = '' 
				  ST.DATE       = '' 
				  ORG.ST.DATE   = '' 
				  FIN.DATE      = '' 
				  ORG.PRINS.AMT = '' 
				  NOM.OF.MONS   = '' 
				  INT.RATE      = '' 
				  ANNUAL.INC    = '' 
				  NOM.OF.SUBS   = '' 
				  SALARY.AMT    = '' 
				  ORG.SALARY.AMT= '' 
				  WS.SALARY.AMT = '' 
				  SAL.MAX.PR    = '' 
			      TRNSH.1       = '' 
				  TRNSH.2       = '' 
				  TRNSH.3       = '' 
				  TRNSH.4       = '' 
                  ANNUT.AMT     = '' 							 				  
		          V.DATE        =''
                  OUTSTAND.AMT  =''
				  TODAT.PRINS.AMT =  '' 
				  EE = '' 
				   NOM.OF.MONS  = ''


				   
				   
				     TODAT.PRINS.AMT  = ''
					 OUTSTAND.AMT     = ''
					 WS.PRINS.AMT     = ''
					 CUS.PAY.X        = ''
					 
					 ANNUT.AMT    = ''
					 CUS.PAY      = ''
					 HH           = ''
					 CUS.PAY.X    = ''
					 AMT.1        = ''
					 AMT.2        = ''
					 II           = '' 
					 OUTSTAND.AMT = ''
					 INT.RATE     = ''
					 PRNS.DIFF     = ''
					 PRINS.AMT.TOT = ''
					 ORG.PRINS.AMT = ''
					 ADD.MONTH     = ''

                     NOMM  =	''	
 PER.1          = ''					 
 PER.P          = ''      
 TOT.SUBS       = '' 
 ST.DATE        = ''
 V.DATE         = ''
 CUS.PAY.X           =  ''
 CUS.PAY             = ''
 NOM.OF.SUBS         = ''
ANNUAL.INC           = ''
INT.RATE             = ''
LOAN.INT             = ''
SAL.MAX.PR           = ''
AA                   = ''
 TOT.SUBS            = ''
  WS.CUS.PAY         = ''
  WS.SALARY.AMT      = ''
   WS.LOOP           =  ''
   QQ                = ''
   DD                = ''
    WS.LOOP          = ''
	 WS.NPV.MAX      = '' 
	  WS.MAX.SUBS    = ''
	  TOT.WS.NPV.MAX = ''
	  LAST.PERS      = ''
	  CUS.PAY.ORG    = ''
	  SUBSIDY.AMT    = ''
***----------------------------

                  MRG.DATE      = '20160908'
			      BRN.NO        = FIELD(Line,",",2)
				  IF LEN(BRN.NO)EQ 1 THEN BRN.NO = '0':BRN.NO
			    *  BRN.NO        = '02'
				  COMP.ID       = 'EG00100':BRN.NO
				  CUS.NOM       = FIELD(Line,",",12)
				  ST.DATE       = FIELD(Line,",",6)[1,4]:FIELD(Line,",",6)[6,2]:FIELD(Line,",",6)[9,2]
				  CALL ADD.MONTHS(ST.DATE ,'-1') 
				  ORG.ST.DATE   = ST.DATE
				  FIN.DATE      = FIELD(Line,",",7)[1,4]:FIELD(Line,",",7)[6,2]:FIELD(Line,",",7)[9,2]
				  ORG.PRINS.AMT = FIELD(Line,",",8)
				  NOM.OF.MONS   = FIELD(Line,",",10)
				  INT.RATE      = FIELD(Line,",",11)
				  ANNUAL.INC    = FIELD(Line,",",15)
				  NOM.OF.SUBS   = FIELD(Line,",",16)
				  SALARY.AMT    = FIELD(Line,",",17)
				  ORG.SALARY.AMT= FIELD(Line,",",17)
				  WS.SALARY.AMT = FIELD(Line,",",17)
				  SAL.MAX.PR    = FIELD(Line,",",18)
			      TRNSH.1       = FIELD(Line,",",25)
				  TRNSH.2       = FIELD(Line,",",26)
				  TRNSH.3       = FIELD(Line,",",27)
				  TRNSH.4       = FIELD(Line,",",28)
				  
				  
				  OLD.REF     = FIELD(Line,",",13)
                  ANNUT.AMT     = SALARY.AMT   
							 				  
		          V.DATE                  = TODAY                                 
                  OUTSTAND.AMT            = FIELD(Line,",",8)      ; * 'Mortgage Balance Outstanding'
			*  L.OUTSTAND.AMT          = R.LD.NAU<LD.AMOUNT>       ; * 'Mortgage Balance Outstanding'
			   				
					GOSUB GET.STRT		


					
				  I = I + 1


				  END ELSE
				  
					 EOF = 1
				  END
				  
 		  REPEAT

              CLOSESEQ MyPath
 RETURN
			  
			  
GET.STRT:			  
		    SAL.CHK  = SALARY.AMT
			
			IF SAL.CHK LT 2100  THEN			
			       GOSUB PROCESS.LD.SCHEDULES.1			  
			  END ELSE			 
			       GOSUB PROCESS.LD.SCHEDULES.2			
			END 
   
   RETURN
  
									*------------------------------------------------------------------------------*
									*------------------------- PROCESS LD SCHEDULES -------------------------------*
PROCESS.LD.SCHEDULES.1:

      
            
***-----------------------15/10-----------------
*****DEBUG
                         LOAN.INT        =  ( ORG.PRINS.AMT * INT.RATE )  /  12  / 100
			             CALL EB.ROUND.AMOUNT ('' ,LOAN.INT,'',"")		
                         AMT.TO.PAY      =   SALARY.AMT * SAL.MAX.PR  /100
			             CALL EB.ROUND.AMOUNT ('' ,AMT.TO.PAY,'',"")						 
***-----------------------15/10-----------------

					
					                 		   
					 FOR AA =  1 TO 	NOM.OF.SUBS	
					   ANNUT.AMT     =   ANNUT.AMT  + ( ANNUT.AMT  * ANNUAL.INC  /100 )           
			         NEXT AA	
					 
			         ANNUT.AMT      = ANNUT.AMT  *   SAL.MAX.PR  / 100
			         CALL EB.ROUND.AMOUNT ('' , ANNUT.AMT,'',"")
					 							 
					 CUS.PAY                  = SALARY.AMT  * SAL.MAX.PR /100
			         CALL EB.ROUND.AMOUNT ('' ,CUS.PAY,'',"")
					 
					 CUS.PAY.ORG              =  CUS.PAY  
					 CALL EB.ROUND.AMOUNT ('' ,CUS.PAY.ORG,'',"")
						  
				     SUBSIDY.AMT              = ANNUT.AMT  - CUS.PAY	
					 CALL EB.ROUND.AMOUNT ('' ,SUBSIDY.AMT,'',"")

		     
			  
              ANNUT.AMT.ORG      = ANNUT.AMT 			       		  
			  
               NOOM.OF.LOOP              = 12
			   HH                        = 1
			   II                        = 1
			   NOMM                      = 1 
			   CUS.PAY.X                 = 0
			   AMT.1                     = 0
			   AMT.2                     = 0
	 	   *****DEBUG
		  FOR EE = 1 TO NOM.OF.MONS 	  
		  
		                        	 IF HH GT 12  THEN		
									 	    HH = 1		 								     
									 		IF NOMM LE  NOM.OF.SUBS  THEN
									 					 SALARY.AMT  = SALARY.AMT + ( SALARY.AMT * ANNUAL.INC  /100)
									 					 CALL EB.ROUND.AMOUNT ('' ,SALARY.AMT,'',"")
									 		END       
											
                                            CUS.PAY                  = SALARY.AMT  * SAL.MAX.PR /100
									 		CALL EB.ROUND.AMOUNT ('' ,CUS.PAY,'',"")										
									 		SUBSIDY.AMT              = ANNUT.AMT  - CUS.PAY	
									 		CALL EB.ROUND.AMOUNT ('' ,SUBSIDY.AMT,'',"")						
									 		NOMM  = NOMM + 1											
									 END										 
									 

		                                CUS.PAY.ORG              =  CUS.PAY  
					                    CALL EB.ROUND.AMOUNT ('' ,CUS.PAY.ORG,'',"")
			     
		    	 CALL ADD.MONTHS(ST.DATE ,'+1')  
				
		        ADD.MONTH = ST.DATE[5,2]
		          
				 IF TRNSH.1  NE '' THEN 				 
				    IF  TRNSH.1 EQ ADD.MONTH  THEN 					
					 ANNUT.AMT  = ANNUT.AMT +  CUS.PAY 
					 CUS.PAY.X  = CUS.PAY
                     CUS.PAY    = CUS.PAY + CUS.PAY 					 
					END 				 
				 END 			   
			    IF TRNSH.2 NE '' THEN 				 
				    IF  TRNSH.2 EQ ADD.MONTH THEN 					
					 ANNUT.AMT  = ANNUT.AMT +  CUS.PAY
					 CUS.PAY.X  = CUS.PAY
                     CUS.PAY    = CUS.PAY + CUS.PAY 					 
					END 				 
			   END 
			    IF TRNSH.3  NE '' THEN 				 
				    IF  TRNSH.3 EQ ADD.MONTH  THEN 					
					 ANNUT.AMT  = ANNUT.AMT +  CUS.PAY 
                     CUS.PAY.X  = CUS.PAY					 
					 CUS.PAY    = CUS.PAY + CUS.PAY 
					END 				 
				END 
		        IF TRNSH.4  NE '' THEN 				 
				    IF  TRNSH.4 EQ ADD.MONTH THEN 					
					 ANNUT.AMT  = ANNUT.AMT +  CUS.PAY 
                     CUS.PAY.X  = CUS.PAY					 
					 CUS.PAY    = CUS.PAY + CUS.PAY 
					END 				 
		    	END 
		   		   		   		 	
 *****DEBUG									
    		                        *     ST.DATE         = SHIFT.DATE(ST.DATE,'1M',UP)	 		  				
									*	  CALL ADD.MONTHS(ST.DATE ,'+1')   
						                  WS.PRINS.AMT    = ANNUT.AMT.ORG -  LOAN.INT 

                                          OUTSTAND.AMT    = ( OUTSTAND.AMT - WS.PRINS.AMT ) - CUS.PAY.X
										  
										    AMT.X         = WS.PRINS.AMT + CUS.PAY.X										                
									        PRINS.AMT.TOT =  PRINS.AMT.TOT + AMT.X 
										  
										  IF EE EQ NOM.OF.MONS THEN 
											  PRNS.DIFF      = PRINS.AMT.TOT  -  ORG.PRINS.AMT
											   AMT.X         = ( WS.PRINS.AMT      -  PRNS.DIFF ) + CUS.PAY.X										  	
										  END 
												
										IF AMT.X LT 0 THEN 									
											SCH.TYP = 'B'						
											AMT.SCH = AMT.X * -1										
										END ELSE
											SCH.TYP = 'P'						
											AMT.SCH = AMT.X																					
										END 
					
						
						                LOAN.INT        =  ( OUTSTAND.AMT * INT.RATE )  /  12  / 100
			                            CALL EB.ROUND.AMOUNT ('' ,LOAN.INT,'',"")		
						 				
                                         II = II + 2 										
           
                ANNUT.AMT    = ANNUT.AMT.ORG    	   			   											   							
     		    CUS.PAY      = CUS.PAY.ORG  
		 		HH           = HH + 1	
				CUS.PAY.X    = ''
				AMT.1        = '' 
				AMT.2        = ''			 
				
				*PRINT  "PR= " : WS.PRINS.AMT  : '** INT =  ' : LOAN.INT :'**WS.TOT.PAY=  ' :WS.TOT.PAY : '** WS.SUS.PAY =  ' : WS.SUS.PAY : " *OUTSTAND.AMT   = " :OUTSTAND.AMT  :"** CUS.PAY=  " : CUS.PAY : " ** AMT.X= "	: AMT.X 
				
				                        IF  ST.DATE GT V.DATE  THEN  	
									 **DEBUG
                                       *   IF  ST.DATE GT MRG.DATE AND ST.DATE LT V.DATE THEN  	    
                                               ****DEBUG 
											   *TODAT.PRINS.AMT =  OUTSTAND.AMT  
											    TODAT.PRINS.AMT = ( OUTSTAND.AMT + WS.PRINS.AMT ) + CUS.PAY.X
PRINT  "PR= " : WS.PRINS.AMT  : '** INT =  ' : LOAN.INT :'**WS.TOT.PAY=  ' :WS.TOT.PAY : '** WS.SUS.PAY =  ' : WS.SUS.PAY : " *OUTSTAND.AMT   = " :OUTSTAND.AMT  :"** CUS.PAY=  " : CUS.PAY : " ** AMT.X= "	: AMT.X 
									            GOSUB CRT.OFS.LD
										 EE = NOM.OF.MONS  											 
                                        END 										
								   
				
				
				
		  NEXT EE 

    RETURN


          ****====================================                       2 ==========================================***************
		  
									*------------------------- PROCESS LD SCHEDULES -------------------------------*
PROCESS.LD.SCHEDULES.2:

     
***-----------------------15/10-----------------
                         LOAN.INT        =  ( ORG.PRINS.AMT * INT.RATE )  /  12  / 100
			             CALL EB.ROUND.AMOUNT ('' ,LOAN.INT,'',"")		
                         AMT.TO.PAY      =   SALARY.AMT * SAL.MAX.PR  /100
			             CALL EB.ROUND.AMOUNT ('' ,AMT.TO.PAY,'',"")						 
***-----------------------15/10-----------------

				
					 FOR AA =  1 TO 	NOM.OF.SUBS 
					   ANNUT.AMT     =   ANNUT.AMT  + ( ANNUT.AMT  * ANNUAL.INC  /100 )           
			         NEXT AA	
		*******DEBUG 
		
			         ANNUT.AMT      = ANNUT.AMT  *   SAL.MAX.PR  / 100
			         CALL EB.ROUND.AMOUNT ('' , ANNUT.AMT,'',"")
					 
                     CUS.PAY                 = SALARY.AMT  * SAL.MAX.PR /100
			         CALL EB.ROUND.AMOUNT ('' ,CUS.PAY,'',"")					 
					 
					 WS.CUS.PAY                 = SALARY.AMT  * SAL.MAX.PR /100
			         CALL EB.ROUND.AMOUNT ('' ,WS.CUS.PAY,'',"")
	***--------10/18--------
					 TOT.SUBS       =  25000 - ( SALARY.AMT - 1000 ) / 1500  * 15000
					 CALL EB.ROUND.AMOUNT ('' , TOT.SUBS ,'',"")
					 
                     PER.1          = ( 7 /100 / 12 ) + 1 
				     PER.P          =  ( 7 /100 / 12 ) + 1 
					 			 
		      		  WS.CUS.PAY                  = WS.SALARY.AMT  * SAL.MAX.PR /100
					  CALL EB.ROUND.AMOUNT ('' ,WS.CUS.PAY,'',"")			 
					  					 
					  WS.LOOP        =  NOM.OF.SUBS * 12
					  QQ             = 1
					  FOR DD = 1 TO WS.LOOP 
					        
							 IF QQ GT 12 THEN 
								 QQ = 1 
								 WS.SALARY.AMT  = WS.SALARY.AMT + ( WS.SALARY.AMT * ANNUAL.INC  /100)								 
					             CALL EB.ROUND.AMOUNT ('' ,WS.SALARY.AMT,'',"")
								 
								 WS.CUS.PAY                  = WS.SALARY.AMT  * SAL.MAX.PR /100
							     CALL EB.ROUND.AMOUNT ('' ,WS.CUS.PAY,'',"")												
						
				             END 
				        
                             WS.MAX.SUBS    = ANNUT.AMT - WS.CUS.PAY                 ; * H
                             
							 WS.NPV.MAX     = WS.MAX.SUBS / PER.1 
							 CALL EB.ROUND.AMOUNT ('' ,WS.NPV.MAX,'',"")
                             TOT.WS.NPV.MAX = TOT.WS.NPV.MAX + WS.NPV.MAX  
						     PER.1          = PER.1 * PER.P                         ; * R  
                             PER.1          = PER.1[1,10]									
						*PRINT  WS.CUS.PAY : "   ***  " : ANNUT.AMT : "   ***  " : PER.1 : "   ***  " :  WS.NPV.MAX   		
							QQ = QQ + 1	  
                     NEXT DD 
					 
					* ******DEBUG
					  LAST.PERS      =  ( TOT.SUBS / TOT.WS.NPV.MAX ) 
***-----------10/18--------------
					 
					 CUS.PAY.ORG              =  CUS.PAY  
					 CALL EB.ROUND.AMOUNT ('' ,CUS.PAY.ORG,'',"")
						  
				     SUBSIDY.AMT              = ANNUT.AMT  - CUS.PAY	
					 CALL EB.ROUND.AMOUNT ('' ,SUBSIDY.AMT,'',"")

		     
			  
              ANNUT.AMT.ORG      = ANNUT.AMT 			       		  
			  
               NOOM.OF.LOOP              = 12
			   HH                        = 1
			   II                        = 1
			   NOMM                      = 1 
			   CUS.PAY.X                 = 0
			   AMT.1                     = 0
			   AMT.2                     = 0
	 	   ******DEBUG
		  FOR EE = 1 TO NOM.OF.MONS 	  
		  
		                        	 IF HH GT 12  THEN		
									 	    HH = 1		 								     
									 		IF NOMM LE  NOM.OF.SUBS  THEN
									 					 SALARY.AMT  = SALARY.AMT + ( SALARY.AMT * ANNUAL.INC  /100)
									 					 CALL EB.ROUND.AMOUNT ('' ,SALARY.AMT,'',"")
									 		END       
											
                                            CUS.PAY                  = SALARY.AMT  * SAL.MAX.PR /100
									 		CALL EB.ROUND.AMOUNT ('' ,CUS.PAY,'',"")										
									 		SUBSIDY.AMT              = ANNUT.AMT  - CUS.PAY	
									 		CALL EB.ROUND.AMOUNT ('' ,SUBSIDY.AMT,'',"")						
									 		NOMM  = NOMM + 1											
									 END										 
									 

		                                CUS.PAY.ORG              =  CUS.PAY  
					                    CALL EB.ROUND.AMOUNT ('' ,CUS.PAY.ORG,'',"")
			     
		    	CALL ADD.MONTHS(ST.DATE ,'+1')  
				
		        ADD.MONTH = ST.DATE[5,2]
		          
				 IF TRNSH.1  NE '' THEN 				 
				    IF  TRNSH.1 EQ ADD.MONTH  THEN 					
					 ANNUT.AMT  = ANNUT.AMT +  CUS.PAY 
					 CUS.PAY.X  = CUS.PAY
                     CUS.PAY    = CUS.PAY + CUS.PAY 					 
					END 				 
				 END 			   
			    IF TRNSH.2 NE '' THEN 				 
				    IF  TRNSH.2 EQ ADD.MONTH THEN 					
					 ANNUT.AMT  = ANNUT.AMT +  CUS.PAY
					 CUS.PAY.X  = CUS.PAY
                     CUS.PAY    = CUS.PAY + CUS.PAY 					 
					END 				 
			   END 
			    IF TRNSH.3  NE '' THEN 				 
				    IF  TRNSH.3 EQ ADD.MONTH  THEN 					
					 ANNUT.AMT  = ANNUT.AMT +  CUS.PAY 
                     CUS.PAY.X  = CUS.PAY					 
					 CUS.PAY    = CUS.PAY + CUS.PAY 
					END 				 
				END 
		        IF TRNSH.4  NE '' THEN 				 
				    IF  TRNSH.4 EQ ADD.MONTH THEN 					
					 ANNUT.AMT  = ANNUT.AMT +  CUS.PAY 
                     CUS.PAY.X  = CUS.PAY					 
					 CUS.PAY    = CUS.PAY + CUS.PAY 
					END 				 
		    	END 
				*****DEBUG 
		   		   		   		 		  WS.SUS.PAY 	  = ( ANNUT.AMT - CUS.PAY ) * LAST.PERS
										  CALL EB.ROUND.AMOUNT ('' ,WS.SUS.PAY,'',"")
    		                            * ST.DATE         = SHIFT.DATE(ST.DATE,'1M',UP)	 	
										*  CALL ADD.MONTHS(ST.DATE ,'+1')   
						              *   WS.PRINS.AMT    = ANNUT.AMT.ORG -  LOAN.INT 
                                          WS.TOT.PAY      = WS.SUS.PAY + CUS.PAY 
										  WS.PRINS.AMT    = WS.TOT.PAY - LOAN.INT
                                      *   OUTSTAND.AMT    = ( OUTSTAND.AMT - WS.PRINS.AMT ) - CUS.PAY.X
									      OUTSTAND.AMT    = ( OUTSTAND.AMT - WS.PRINS.AMT )
										  
										 *  AMT.X        = WS.PRINS.AMT + CUS.PAY.X										                
										    AMT.X         = WS.PRINS.AMT
									        PRINS.AMT.TOT =  PRINS.AMT.TOT + AMT.X 
										  
										  IF EE EQ NOM.OF.MONS THEN 
											  PRNS.DIFF      = PRINS.AMT.TOT  -  ORG.PRINS.AMT
											*  AMT.X         = ( WS.PRINS.AMT      -  PRNS.DIFF ) + CUS.PAY.X										  	
											   AMT.X         = ( WS.PRINS.AMT      -  PRNS.DIFF )
											
										  END 
												
										IF AMT.X LT 0 THEN 									
											SCH.TYP = 'B'						
											AMT.SCH = AMT.X * -1										
										END ELSE
											SCH.TYP = 'P'						
											AMT.SCH = AMT.X																					
										END 

						
						                LOAN.INT        =  ( OUTSTAND.AMT * INT.RATE )  /  12  / 100
			                            CALL EB.ROUND.AMOUNT ('' ,LOAN.INT,'',"")		
				
 *PRINT  "PR= " : WS.PRINS.AMT  : '** INT =  ' : LOAN.INT :'**WS.TOT.PAY=  ' :WS.TOT.PAY : '** WS.SUS.PAY =  ' : WS.SUS.PAY : " *OUTSTAND.AMT   = " :OUTSTAND.AMT  :"** CUS.PAY=  " : CUS.PAY : " ** AMT.X= "	: AMT.X 
 
                                         II = II + 2 										
           
                ANNUT.AMT    = ANNUT.AMT.ORG    	   			   											   							
     		    CUS.PAY      = CUS.PAY.ORG  
		 		HH           = HH + 1	
				CUS.PAY.X    = ''
				AMT.1        = '' 
				AMT.2        = ''	
                CUS.PAY.X	 = ''			
				
				
				                        IF  ST.DATE GT V.DATE  THEN  	                                            
									   * IF  ST.DATE GT MRG.DATE AND ST.DATE LT V.DATE THEN  	    
                                             **DEBUG 
											 *  TODAT.PRINS.AMT =  OUTSTAND.AMT 									
											   TODAT.PRINS.AMT = ( OUTSTAND.AMT + WS.PRINS.AMT ) + CUS.PAY.X
PRINT  "PR= " : WS.PRINS.AMT  : '** INT =  ' : LOAN.INT :'**WS.TOT.PAY=  ' :WS.TOT.PAY : '** WS.SUS.PAY =  ' : WS.SUS.PAY : " *OUTSTAND.AMT   = " :OUTSTAND.AMT  :"** CUS.PAY=  " : CUS.PAY : " ** AMT.X= "	: AMT.X 											   

											    GOSUB CRT.OFS.LD
											 EE = NOM.OF.MONS  
											 
                                        END 										
								   
				
		  NEXT EE 

    RETURN
***----------------------------------------------OOOOOOOOOOOOOOOOOOOFFFFFFFFFFFFFFFFFFFFFFSSSSSSSSSSSSSSSSSSSSSSSSSSSSSSSSS
CRT.OFS.LD:


                                                        ACT.ST.DATE = ST.DATE 
														CALL ADD.MONTHS(ACT.ST.DATE,'-1')    

                                                     ST.ACCT         = 'EGP14999269000': BRN.NO
													 
                                                  
 
                                                     OFS.MSG.ID         = ''
                                                     OFS.MSG.OPT        = ''
                                                     COMMA              = ","
                                                         
													
													
													
													 OFS.MSG  =  'LD.LOANS.AND.DEPOSITS,LD.LIQ/I/PROCESS,//':COMP.ID :COMMA:OLD.REF:COMMA
                                                     OFS.MSG :=  'FIN.MAT.DATE=':ACT.ST.DATE:COMMA
													 OFS.MSG :=  'DRAWDOWN.ACCOUNT=':ST.ACCT:COMMA
												     OFS.MSG :=  'PRIN.LIQ.ACCT=':ST.ACCT:COMMA
												     OFS.MSG :=  'INT.LIQ.ACCT=':ST.ACCT:COMMA
													 OFS.MSG :=  'CHRG.LIQ.ACCT=':ST.ACCT:COMMA
												 **DEBUG 
                                                        OFS.SRC.ID = 'PDOFS'														
                                                        CALL OFS.POST.MESSAGE(OFS.MSG,OFS.MSG.ID,OFS.SRC.ID,OFS.MSG.OPT)
                                                        CALL JOURNAL.UPDATE("") 

						          ACT.ST.DATE = ''								
																										
														
     RETURN   
**-------------------------------------------------------------------   
   RETURN

END
