SUBROUTINE V.CHK.ISKAN.OLD.DATA

    $INSERT I_COMMON
    $INSERT I_GTS.COMMON
*    $INSERT I_HDB.OFS.MSG.COMMON
    $INSERT I_EQUATE
    $INSERT I_F.HDB.LAND.ISKAN
    $INSERT I_F.ACCOUNT
    $INSERT I_F.USER
    $INSERT I_F.FUNDS.TRANSFER
    $INSERT I_F.HDB.LAND.CITY.CODE

     GOSUB OPENFILES
     GOSUB PROCESS
     GOSUB PROG.END

     RETURN
	
*************************************************************************
OPENFILES:

        Y.CD.ID = ""
        Y.CD.ID1 = ""
        RET.CODE = ""
        RET.CODE1 = ""
        FN.HDB = "F.HDB.LAND.ISKAN"
	FN.HDB1 = "F.HDB.LAND.CITY.CODE"
        F.CD = ""
        F.HDB = ""
        F.HDB1 = ""
        R.CD = ""
        R.CD1 = ""
        CALL OPF(FN.HDB,F.HDB)
 	CALL OPF(FN.HDB1,F.HDB1)


    FN.ACC      = 'F.ACCOUNT'                      ; F.ACC       = ''            ; R.ACC       = ''      ; ER.ACC      = ''    ;
	 CALL OPF(FN.ACC,F.ACC)
  



   RETURN

************
PROCESS:
************
*DEBUG
        Y.CD.ID =R.NEW(LND.ISK.LAND.OLD.SLIP)

        CALL F.READ(FN.HDB,Y.CD.ID,R.CD,F.HDB,RET.CODE) 

        IF RET.CODE <> "" THEN
            E = "AA-AC.HDB.LAND.ISKAN.R1"
           CALL STORE.END.ERROR
             CALL ERR ; MESSAGE='REPEAT'  
	 GOSUB PROG.END      
	END   
  IF R.CD<LND.ISK.LAND.RE.FLAG> = 4 THEN
 	E = "AA-AC.HDB.LAND.ISKAN.ER1"
        CALL STORE.END.ERROR
        CALL ERR ; MESSAGE='REPEAT' 
	 GOSUB PROG.END       
	END   
*DEBUG
   	IF  R.CD<LND.ISK.LAND.RE.FLAG> = 2 THEN

		GOSUB TEMP.CHECK.ACC



        END 
*
     

  
TEMP.ID.COMP = ID.COMPANY[7,3]

TEMP.CITY=R.CD<LND.ISK.LAND.CITY>

 CALL F.READ(FN.HDB1,TEMP.CITY,R.CD1,F.HDB1,RET.CODE1) 

    IF  RET.CODE1 <> "" THEN
           E = "AA-AC.CITY.NOT.VALID"
           CALL STORE.END.ERROR
           CALL ERR ; MESSAGE='REPEAT'
	 GOSUB PROG.END
    END


   RETURN
***************
TEMP.CHECK.ACC:
************ 
*DEBUG
TEMP.ACC= R.CD<LND.ISK.LAND.ACCTNO>

  CALL F.READ(FN.ACC,TEMP.ACC, TEMP.R.ACC,F.ACC, ER.ACC )

 	IF ER.ACC <> "" THEN
            E = "AA-AC.HDB.LAND.ISKAN.R2.1"
            CALL STORE.END.ERROR
             CALL ERR ; MESSAGE='REPEAT' 
	 GOSUB PROG.END       
	END   

            TEMP.ACC.CATEG   = TEMP.R.ACC<AC.CATEGORY>
	
	IF NOT( TEMP.ACC.CATEG EQ 1016 OR TEMP.ACC.CATEG EQ 1002 ) THEN 
            E = "AA-AC.HDB.LAND.ISKAN.R2.1"
            CALL STORE.END.ERROR
            CALL ERR ; MESSAGE='REPEAT'
 	GOSUB PROG.END

        END

 TEMP.BAL = TEMP.R.ACC<AC.WORKING.BALANCE>

	IF TEMP.BAL < 25000 THEN
                ETEXT  = "AA-AC.FREE.EST.4"
               CALL STORE.END.ERROR
            CALL ERR ; MESSAGE='REPEAT'
	 GOSUB PROG.END

        END

   RETURN

*********

*********
PROG.END:
        END

RETURN
*********

END

