   	
	SUBROUTINE HDB.TOTAL.CUSTOEMR.DATA

	$INSERT  I_COMMON
	$INSERT  I_EQUATE
	$INSERT  I_ENQUIRY.COMMON
	$INSERT  I_F.COMPANY
	$INSERT  I_F.ACCOUNT
	$INSERT  I_F.CUSTOMER 
    $INSERT  I_F.HDB.TOTAL.CUSTOMER 
	$INSERT  I_F.SECTOR



     T.DATA = ''
     
*&SAVEDLISTS&
*
 
 DEBUG 
    OPENSEQ "/shared/t24/t24perf/RETAILOUT/" , "TOTAL.CUSTOMER-":TODAY TO T.DATA THEN
	CLOSESEQ T.DATA
	HUSH ON
	EXECUTE 'DELETE ':"/shared/t24/t24perf/RETAILOUT/":' ':"TOTAL.CUSTOMER-":TODAY
	HUSH OFF
    END
    OPENSEQ "/shared/t24/t24perf/RETAILOUT/" , "TOTAL.CUSTOMER-":TODAY TO T.DATA ELSE
	CREATE T.DATA THEN
	    PRINT 'CUSTOMER.DATA CREATED IN /shared/t24/t24perf/RETAILOUT/'
	END
	ELSE
	   STOP 'Cannot create TOTAL.CUSTOMER File IN /shared/t24/t24perf/RETAILOUT/'
	END
    END


	
	
	
 * TRNS.DATA = "KEY.LIST,":"LINE.NOM,":"LINE.NAME,":"CONS.REC,":"CONT.ID ,":"CUS.NOM ,":"OPEN.CUS.DATE,":"BRANSH.NOM,":"BRANSH.NAME  ,":"CUS.NAME,":"LEGAL.ID,":"M.F,":"BIRTH.DATE,":"CUS.YEARS,":"PHONE,":"REC.CUR ,":"PROD.TYPE.L,":"LOAN.TYPE,":"CAT.NO,":"CAT.NAME,":"LCY.AMT ,":"FCY.AMT ,":"INT.RATE,":"INT.SPRD,":"ISKAN.CUSTOMER,":"LIMIT.ISSUE.DATE,":"LIMIT.MAT.DATE,":"LIMIT.AMT,"
 
   TRNS.DATA = "ID,":"CUSTOMER.NO,":"NAME,":"ADDRESS,":"MOBILE,":"CURRENT.ACCOUNT,":"SAVING.ACCOUNT,":"CD,":"TD,":"TOTAL.AMOUNT,":"BRANCH,":"BRANCH.NAME,":"LEGAL.DOC.NAME,":"LEGAL.ID,":"SECTOR,":"SECTOR.DESCRIPTION,":"DATE.OF.BIRTH,":"CUSTOMER.SINCE,":"GENDER,":"TARGET"
    

		WRITESEQ TRNS.DATA TO  T.DATA ELSE
		  PRINT " ERROR WRITE FILE "
	    END
**------------------------------

    GOSUB INITIATE
    GOSUB CALL.LD

    GOSUB PROCESS.LD



    RETURN
****************************************
INITIATE:
*--------
   
CUSTOMER.NO=''
DATE.OF.BIRTH=''
SECTOR=''
INDUSTRY=''
CUSTOMER.STATUS=''
NATIONALITY=''
GENDER=''
LEGAL.DOC.NAME=''
LEGAL.ID=''
PLACE.OF.BIRTH=''
T.SALES.YEAR=''
LAST.KYC.REVIEW.DATE=''
TARGET=''
REL.CUSTOMER=''
BIRTH.INCORP.DATE=''
RELATION.CODE=''
CBE.NUMBER=''
CBE.INDUSTRY=''
CUSTOMER.NAME=''
ADDRESS=''

 
  
    RETURN
****************************************
CALL.LD:
*-------
   
    FN.CUS        = 'F.CUSTOMER'                          ; F.CUS         = ''              ; R.CUS          = ''
    CALL OPF(FN.CUS,F.CUS) 
	
	FN.TOTAL = 'F.HDB.TOTAL.CUSTOMER' 
	F.TOTAL = '' 
	R.TOTAL = '' 
	CALL OPF(FN.TOTAL,F.TOTAL)  
	
 FN.COMP  = 'F.COMPANY'                           ; F.COMP      = ''             ; R.COMP         = ''
   CALL OPF(FN.COMP , F.COMP ) 
   
   
   FN.SECTOR   = 'F.SECTOR'                   ; F.SECTOR    = ''              ; R.SECTOR      = ''
     CALL OPF(FN.SECTOR ,F.SECTOR)

 	 
		 RETURN
****************************************




*************************************
PROCESS.LD:
*-------
DEBUG
       
	    
	   
	   
      KEY.LIST  = ""  ;  SELECTED  = ""   ;  ER.MSG   = "" 
	  
	 T.SEL = "SELECT F.HDB.TOTAL.CUSTOMER WITH TOTAL.CUSTOMER GE '0' "
	
     

      CALL EB.READLIST(T.SEL ,KEY.LIST ,"",SELECTED,ER.MSG)

			IF KEY.LIST THEN
				FOR II = 1 TO SELECTED

       
                    CALL F.READ(F.HDB.TOTAL.CUSTOMER,KEY.LIST<II>, R.TOTAL,F.TOTAL, ETEXT.TOTAL)
					
			
					   ID=KEY.LIST<II>
					   
					   CUSTOMER.NO      = R.TOTAL<CUS.TOT.CUSTOMER.ID> 
					   CALL F.READ(FN.CUS,CUSTOMER.NO,R.CUS,F.CUS, ETEXT.CUST)
					   
					   CUSTOMER.NAME  =  R.CUS<EB.CUS.NAME.1><1,2>
					   ADDRESS  =  R.CUS<EB.CUS.STREET><1,2> 
					   MOBILE = R.CUS<EB.CUS.SMS.1>
					   
					   CURRENT.ACCOUNT = R.TOTAL<CUS.TOT.CURRENT.ACCOUNT>
					   SAVING.ACCOUNT = R.TOTAL<CUS.TOT.SAVING.ACCOUNT>
					   CD=R.TOTAL<CUS.TOT.CD>
					   TD=R.TOTAL<CUS.TOT.TD>
					   TOTAL.AMOUNT = R.TOTAL<CUS.TOT.TOTAL.CUSTOMER>
					   
					   BRANCH= R.CUS<EB.CUS.COMPANY.BOOK> 
					   
					   CALL F.READ(FN.COMP,BRANCH,R.COMP,F.COMP, ETEXT.COMP)
					   
					   BRANCH.NAME = R.COMP<EB.COM.COMPANY.NAME>
					   
					   LEGAL.DOC.NAME  =  R.CUS<EB.CUS.LEGAL.DOC.NAME>       
                       LEGAL.ID  =  R.CUS<EB.CUS.LEGAL.ID> 
					   
					   SECTOR    =  R.CUS<EB.CUS.SECTOR>
					   CALL F.READ(FN.SECTOR,SECTOR,R.SECTOR,F.SECOTR, ETEXT.SECTOR) 
					   SECTOR.DESCRIPTION = R.SECTOR<1><1,2> 
					   
					   DATE.OF.BIRTH     =  R.CUS<EB.CUS.DATE.OF.BIRTH>
					   CUSTOMER.SINCE    = R.CUS<EB.CUS.CUSTOMER.SINCE>
					   GENDER  =  R.CUS<EB.CUS.GENDER>
					   TARGET  =  R.CUS<EB.CUS.TARGET> 
					   
					   DATE = R.TOTAL<CUS.TOT.DATE> 
					   
					   
					   
					   
					   
                                
                               
                      
					  
                    
					   
					   
								
								
								 
	  				
                                 
								 
								 
        
  
  
   

                            
					 
						 
						 
                        
 TRNS.DATA =  ID: ", " :CUSTOMER.NO: ", " :CUSTOMER.NAME: ", " :ADDRESS: ", " :MOBILE: ", " :CURRENT.ACCOUNT: ", " :SAVING.ACCOUNT: ", " :CD: ", " :TD: ", " :TOTAL.AMOUNT: ", " :BRANCH: ", " :BRANCH.NAME: ", " :LEGAL.DOC.NAME: ", " :LEGAL.ID: ", " :SECTOR: ", " :SECTOR.DESCRIPTION: ", " :DATE.OF.BIRTH: ", " :CUSTOMER.SINCE: ", " :GENDER: ", " :TARGET
			
						     


						WRITESEQ TRNS.DATA TO  T.DATA ELSE
						  PRINT " ERROR WRITE FILE "
					   END
					   
ID                    =''
CUSTOMER.NO           =''
CUSTOMER.NAME		  =''			      
ADDRESS               =''
MOBILE                =''
CURRENT.ACCOUNT       =''
SAVING.ACCOUNT        =''
CD                    =''
TD                    =''
TOTAL.AMOUNT          =''
BRANCH                =''
BRANCH.NAME           =''
LEGAL.DOC.ID          =''
LEGAL.ID              =''
SECTOR                =''
SECTOR.DESCRIPTION    =''
DATE.OF.BIRTH         =''
CUSTOMER.SINCE        =''
GENDER                =''
TARGET                =''








 NEXT II
           END 

    RETURN



END