*-----------------------------------------------------------------------------
* <Rating>450</Rating>
*-----------------------------------------------------------------------------
    SUBROUTINE HDB.RATING.CODE.FILL.DATA

   $INSERT I_COMMON
   $INSERT  I_EQUATE
   $INSERT  I_F.USER
   $INSERT  I_F.HDB.RATING.CODE
   $INSERT I_ENQUIRY.COMMON


  
    Path = "/shared/t24/t24perf/DM.UPLOAD/RAT/RAT.CODE"

    OPENSEQ Path TO MyPath ELSE
        TEXT = "ERROR OPEN FILE" ; CALL REM
        RETURN
    END

*DEBUG

    FN.HDB.RATING.CODE = 'FBNK.HDB.RATING.CODE'; F.HDB.RATING.CODE = ''
    CALL OPF(FN.HDB.RATING.CODE,F.HDB.RATING.CODE)


    EOF = ''
    I = 1
DEBUG  
    LOOP WHILE NOT(EOF)
        READSEQ Line FROM MyPath THEN
	OUR.ID         = FIELD(Line,",",1)
        CALL F.READ( FN.HDB.RATING.CODE,OUR.ID, R.HDB.RATING.CODE, F.HDB.RATING.CODE, ETEXT.RAT)
*			IF ETEXT.RAT EQ NULL THEN
		   		R.HDB.RATING.CODE<RAT.CO.DESC.ARB>		= FIELD(Line,",",2)
	R.HDB.RATING.CODE<RAT.CO.CO.CODE>		= FIELD(Line,",",3)
                   		CALL F.WRITE(F.HDB.RATING.CODE, OUR.ID,R.HDB.RATING.CODE)
                   		CALL JOURNAL.UPDATE('')
*			END
                I = I + 1
           

        END ELSE
            EOF = 1
        END
    REPEAT

    CLOSESEQ MyPath

    RETURN
END