*-----------------------------------------------------------------------------
* <Rating>450</Rating>
*-----------------------------------------------------------------------------
    SUBROUTINE HDB.ASMA.FILL.DATA

   $INSERT I_COMMON
   $INSERT  I_EQUATE
   $INSERT  I_F.USER
   $INSERT  I_F.HDB.SKN.ASMA
   $INSERT I_ENQUIRY.COMMON


  
    Path = "/shared/t24/t24perf/DM.UPLOAD/ASMA/uplaod_data_1.csv"

    OPENSEQ Path TO MyPath ELSE
        TEXT = "ERROR OPEN FILE" ; CALL REM
        RETURN
    END

*DEBUG

    FN.HDB.ASMA = 'F.HDB.SKN.ASMA'; F.HDB.ASMA = ''
    CALL OPF(FN.HDB.ASMA,F.HDB.ASMA)


    EOF = ''
    I = 1
DEBUG  
    LOOP WHILE NOT(EOF)
        READSEQ Line FROM MyPath THEN
        
	OUR.ID         = FIELD(Line,",",1)





         CALL F.READ( FN.HDB.ASMA,OUR.ID, R.HDB.ASMA, F.HDB.ASMA, ETEXT)

             
			 R.HDB.ASMA<ISK.ASMA.STAGENO>		= FIELD(Line,",",3)
			 R.HDB.ASMA<ISK.ASMA.NAME>		= FIELD(Line,",",6)
			 R.HDB.ASMA<ISK.ASMA.ADDRES>		= FIELD(Line,",",13)
			 R.HDB.ASMA<ISK.ASMA.LEG.ID>		= FIELD(Line,",",4)
			 R.HDB.ASMA<ISK.ASMA.TEL.H>		= FIELD(Line,",",12)
			 			R.HDB.ASMA<ISK.ASMA.PRINT.IMAGE>		= FIELD(Line,",",5)
			 			R.HDB.ASMA<ISK.ASMA.BIRTH.DAT>		= FIELD(Line,",",7)

			R.HDB.ASMA<ISK.ASMA.MOBILE>		= FIELD(Line,",",11)
			R.HDB.ASMA<ISK.ASMA.NATIONATY.COD>		= FIELD(Line,",",8)
			R.HDB.ASMA<ISK.ASMA.RESIDENCE.COD>		= FIELD(Line,",",9)
			 R.HDB.ASMA<ISK.ASMA.MARTAL.COD>		= FIELD(Line,",",15)
			 R.HDB.ASMA<ISK.ASMA.EMAIL>		= FIELD(Line,",",14)
			R.HDB.ASMA<ISK.ASMA.GOV.COD>		= FIELD(Line,",",10)
			R.HDB.ASMA<ISK.ASMA.CO.CODE>			= FIELD(Line,",",2)
			R.HDB.ASMA<ISK.ASMA.BRANCHNO>		= FIELD(Line,",",2)


			
			 
                   CALL F.WRITE(F.HDB.ASMA, OUR.ID,R.HDB.ASMA)
                   CALL JOURNAL.UPDATE('')

                I = I + 1
           

        END ELSE
            EOF = 1
        END
    REPEAT

    CLOSESEQ MyPath

    RETURN
END